03.22.2017 01.48.02.918
------------------------------------------------------------------------
[ERROR] BluetoothInterface::Close > One or more errors occurred.
   at System.Threading.Tasks.Task.ThrowIfExceptional(Boolean includeTaskCanceledExceptions)
   at System.Threading.Tasks.Task`1.GetResultCore(Boolean waitCompletionNotification)
   at System.Threading.Tasks.Task`1.get_Result()
   at Connection.BluetoothInterface.Close()
InnerException
Object reference not set to an instance of an object.
   at Connection.BluetoothInterface.<Disconnect>d__d.MoveNext()
------------------------------------------------------------------------


03.22.2017 01.48.31.755
------------------------------------------------------------------------
[INFO] ConnectionInterface::read: no response within timeout > The operation has timed out.
   at System.IO.Ports.SerialStream.Read(Byte[] array, Int32 offset, Int32 count, Int32 timeout)
   at System.IO.Ports.SerialStream.Read(Byte[] array, Int32 offset, Int32 count)
   at System.IO.Ports.SerialPort.Read(Byte[] buffer, Int32 offset, Int32 count)
   at Connection.ConnectionInterface.read(Byte[] response, Int32 length, Boolean readStream)
InnerException

------------------------------------------------------------------------


03.22.2017 01.48.32.466
------------------------------------------------------------------------
[INFO] ConnectionInterface::readByte: no response within timeout > The operation has timed out.
   at System.IO.Ports.SerialStream.ReadByte(Int32 timeout)
   at System.IO.Ports.SerialStream.ReadByte()
   at System.IO.Ports.SerialPort.ReadByte()
   at Connection.ConnectionInterface.readByte()
InnerException

------------------------------------------------------------------------


03.22.2017 01.48.32.969
------------------------------------------------------------------------
[INFO] ConnectionInterface::read: no response within timeout > The operation has timed out.
   at System.IO.Ports.SerialStream.Read(Byte[] array, Int32 offset, Int32 count, Int32 timeout)
   at System.IO.Ports.SerialStream.Read(Byte[] array, Int32 offset, Int32 count)
   at System.IO.Ports.SerialPort.Read(Byte[] buffer, Int32 offset, Int32 count)
   at Connection.ConnectionInterface.read(Byte[] response, Int32 length, Boolean readStream)
InnerException

------------------------------------------------------------------------


03.22.2017 01.48.35.484
------------------------------------------------------------------------
[INFO] ConnectionInterface::read: no response within timeout > The operation has timed out.
   at System.IO.Ports.SerialStream.Read(Byte[] array, Int32 offset, Int32 count, Int32 timeout)
   at System.IO.Ports.SerialStream.Read(Byte[] array, Int32 offset, Int32 count)
   at System.IO.Ports.SerialPort.Read(Byte[] buffer, Int32 offset, Int32 count)
   at Connection.ConnectionInterface.read(Byte[] response, Int32 length, Boolean readStream)
InnerException

------------------------------------------------------------------------


03.22.2017 01.48.36.189
------------------------------------------------------------------------
[INFO] ConnectionInterface::readByte: no response within timeout > The operation has timed out.
   at System.IO.Ports.SerialStream.ReadByte(Int32 timeout)
   at System.IO.Ports.SerialStream.ReadByte()
   at System.IO.Ports.SerialPort.ReadByte()
   at Connection.ConnectionInterface.readByte()
InnerException

------------------------------------------------------------------------


03.22.2017 01.48.36.693
------------------------------------------------------------------------
[INFO] ConnectionInterface::read: no response within timeout > The operation has timed out.
   at System.IO.Ports.SerialStream.Read(Byte[] array, Int32 offset, Int32 count, Int32 timeout)
   at System.IO.Ports.SerialStream.Read(Byte[] array, Int32 offset, Int32 count)
   at System.IO.Ports.SerialPort.Read(Byte[] buffer, Int32 offset, Int32 count)
   at Connection.ConnectionInterface.read(Byte[] response, Int32 length, Boolean readStream)
InnerException

------------------------------------------------------------------------


03.22.2017 03.28.14.423
------------------------------------------------------------------------
[INFO] ConnectionInterface::read: no response within timeout > The operation has timed out.
   at System.IO.Ports.SerialStream.Read(Byte[] array, Int32 offset, Int32 count, Int32 timeout)
   at System.IO.Ports.SerialStream.Read(Byte[] array, Int32 offset, Int32 count)
   at System.IO.Ports.SerialPort.Read(Byte[] buffer, Int32 offset, Int32 count)
   at Connection.ConnectionInterface.read(Byte[] response, Int32 length, Boolean readStream)
InnerException

------------------------------------------------------------------------


03.22.2017 03.28.15.129
------------------------------------------------------------------------
[INFO] ConnectionInterface::readByte: no response within timeout > The operation has timed out.
   at System.IO.Ports.SerialStream.ReadByte(Int32 timeout)
   at System.IO.Ports.SerialStream.ReadByte()
   at System.IO.Ports.SerialPort.ReadByte()
   at Connection.ConnectionInterface.readByte()
InnerException

------------------------------------------------------------------------


03.22.2017 03.28.15.633
------------------------------------------------------------------------
[INFO] ConnectionInterface::read: no response within timeout > The operation has timed out.
   at System.IO.Ports.SerialStream.Read(Byte[] array, Int32 offset, Int32 count, Int32 timeout)
   at System.IO.Ports.SerialStream.Read(Byte[] array, Int32 offset, Int32 count)
   at System.IO.Ports.SerialPort.Read(Byte[] buffer, Int32 offset, Int32 count)
   at Connection.ConnectionInterface.read(Byte[] response, Int32 length, Boolean readStream)
InnerException

------------------------------------------------------------------------


03.22.2017 03.28.18.152
------------------------------------------------------------------------
[INFO] ConnectionInterface::read: no response within timeout > The operation has timed out.
   at System.IO.Ports.SerialStream.Read(Byte[] array, Int32 offset, Int32 count, Int32 timeout)
   at System.IO.Ports.SerialStream.Read(Byte[] array, Int32 offset, Int32 count)
   at System.IO.Ports.SerialPort.Read(Byte[] buffer, Int32 offset, Int32 count)
   at Connection.ConnectionInterface.read(Byte[] response, Int32 length, Boolean readStream)
InnerException

------------------------------------------------------------------------


03.22.2017 03.28.18.859
------------------------------------------------------------------------
[INFO] ConnectionInterface::readByte: no response within timeout > The operation has timed out.
   at System.IO.Ports.SerialStream.ReadByte(Int32 timeout)
   at System.IO.Ports.SerialStream.ReadByte()
   at System.IO.Ports.SerialPort.ReadByte()
   at Connection.ConnectionInterface.readByte()
InnerException

------------------------------------------------------------------------


03.22.2017 03.28.19.363
------------------------------------------------------------------------
[INFO] ConnectionInterface::read: no response within timeout > The operation has timed out.
   at System.IO.Ports.SerialStream.Read(Byte[] array, Int32 offset, Int32 count, Int32 timeout)
   at System.IO.Ports.SerialStream.Read(Byte[] array, Int32 offset, Int32 count)
   at System.IO.Ports.SerialPort.Read(Byte[] buffer, Int32 offset, Int32 count)
   at Connection.ConnectionInterface.read(Byte[] response, Int32 length, Boolean readStream)
InnerException

------------------------------------------------------------------------


03.22.2017 03.50.20.135
------------------------------------------------------------------------
[ERROR] ConnectionInterface::read > The I/O operation has been aborted because of either a thread exit or an application request.

   at System.IO.Ports.InternalResources.WinIOError(Int32 errorCode, String str)
   at System.IO.Ports.SerialStream.EndRead(IAsyncResult asyncResult)
   at System.IO.Ports.SerialStream.Read(Byte[] array, Int32 offset, Int32 count, Int32 timeout)
   at System.IO.Ports.SerialStream.Read(Byte[] array, Int32 offset, Int32 count)
   at System.IO.Ports.SerialPort.Read(Byte[] buffer, Int32 offset, Int32 count)
   at Connection.ConnectionInterface.read(Byte[] response, Int32 length, Boolean readStream)
InnerException

------------------------------------------------------------------------


03.22.2017 03.50.20.142
------------------------------------------------------------------------
[INFO] ConnectionBase::checkDataValidity: no data received
------------------------------------------------------------------------


03.22.2017 04.52.17.501
------------------------------------------------------------------------
[INFO] ConnectionInterface::read: no response within timeout > The operation has timed out.
   at System.IO.Ports.SerialStream.Read(Byte[] array, Int32 offset, Int32 count, Int32 timeout)
   at System.IO.Ports.SerialStream.Read(Byte[] array, Int32 offset, Int32 count)
   at System.IO.Ports.SerialPort.Read(Byte[] buffer, Int32 offset, Int32 count)
   at Connection.ConnectionInterface.read(Byte[] response, Int32 length, Boolean readStream)
InnerException

------------------------------------------------------------------------


03.22.2017 04.52.18.207
------------------------------------------------------------------------
[INFO] ConnectionInterface::readByte: no response within timeout > The operation has timed out.
   at System.IO.Ports.SerialStream.ReadByte(Int32 timeout)
   at System.IO.Ports.SerialStream.ReadByte()
   at System.IO.Ports.SerialPort.ReadByte()
   at Connection.ConnectionInterface.readByte()
InnerException

------------------------------------------------------------------------


03.22.2017 04.52.18.712
------------------------------------------------------------------------
[INFO] ConnectionInterface::read: no response within timeout > The operation has timed out.
   at System.IO.Ports.SerialStream.Read(Byte[] array, Int32 offset, Int32 count, Int32 timeout)
   at System.IO.Ports.SerialStream.Read(Byte[] array, Int32 offset, Int32 count)
   at System.IO.Ports.SerialPort.Read(Byte[] buffer, Int32 offset, Int32 count)
   at Connection.ConnectionInterface.read(Byte[] response, Int32 length, Boolean readStream)
InnerException

------------------------------------------------------------------------


03.22.2017 04.52.21.230
------------------------------------------------------------------------
[INFO] ConnectionInterface::read: no response within timeout > The operation has timed out.
   at System.IO.Ports.SerialStream.Read(Byte[] array, Int32 offset, Int32 count, Int32 timeout)
   at System.IO.Ports.SerialStream.Read(Byte[] array, Int32 offset, Int32 count)
   at System.IO.Ports.SerialPort.Read(Byte[] buffer, Int32 offset, Int32 count)
   at Connection.ConnectionInterface.read(Byte[] response, Int32 length, Boolean readStream)
InnerException

------------------------------------------------------------------------


03.22.2017 04.52.21.935
------------------------------------------------------------------------
[INFO] ConnectionInterface::readByte: no response within timeout > The operation has timed out.
   at System.IO.Ports.SerialStream.ReadByte(Int32 timeout)
   at System.IO.Ports.SerialStream.ReadByte()
   at System.IO.Ports.SerialPort.ReadByte()
   at Connection.ConnectionInterface.readByte()
InnerException

------------------------------------------------------------------------


03.22.2017 04.52.22.441
------------------------------------------------------------------------
[INFO] ConnectionInterface::read: no response within timeout > The operation has timed out.
   at System.IO.Ports.SerialStream.Read(Byte[] array, Int32 offset, Int32 count, Int32 timeout)
   at System.IO.Ports.SerialStream.Read(Byte[] array, Int32 offset, Int32 count)
   at System.IO.Ports.SerialPort.Read(Byte[] buffer, Int32 offset, Int32 count)
   at Connection.ConnectionInterface.read(Byte[] response, Int32 length, Boolean readStream)
InnerException

------------------------------------------------------------------------


